<svg xmlns="http://www.w3.org/2000/svg" width="11.302" height="9.534" viewBox="0 0 11.302 9.534">
  <defs>
    <style>
      .cls-1 {
        fill: none;
        stroke: #fff;
        stroke-width: 2px;
      }
    </style>
  </defs>
  <path id="Added-Success" class="cls-1" d="M95.678,17.42l2.851,3.006,7-7.393" transform="translate(-94.952 -12.346)"/>
</svg>
