<svg xmlns="http://www.w3.org/2000/svg" xmlns:xlink="http://www.w3.org/1999/xlink" width="46.931" height="43.981" viewBox="0 0 46.931 43.981">
  <defs>
    <style>
      .cls-1 {
        fill: #fff;
      }

      .cls-2 {
        filter: url(#Path_7);
      }

      .cls-3 {
        filter: url(#Rectangle_147);
      }

      .cls-4 {
        filter: url(#Rectangle_146);
      }

      .cls-5 {
        filter: url(#Rectangle_145);
      }

      .cls-6 {
        filter: url(#Ellipse_23);
      }

      .cls-7 {
        filter: url(#Ellipse_22);
      }
    </style>
    <filter id="Ellipse_22" x="0.871" y="0" width="25.275" height="25.275" filterUnits="userSpaceOnUse">
      <feOffset input="SourceAlpha"/>
      <feGaussianBlur stdDeviation="3" result="blur"/>
      <feFlood flood-opacity="0.102"/>
      <feComposite operator="in" in2="blur"/>
      <feComposite in="SourceGraphic"/>
    </filter>
    <filter id="Ellipse_23" x="0.871" y="18.707" width="25.275" height="25.275" filterUnits="userSpaceOnUse">
      <feOffset input="SourceAlpha"/>
      <feGaussianBlur stdDeviation="3" result="blur-2"/>
      <feFlood flood-opacity="0.102"/>
      <feComposite operator="in" in2="blur-2"/>
      <feComposite in="SourceGraphic"/>
    </filter>
    <filter id="Rectangle_145" x="10.224" y="0" width="36.707" height="25.275" filterUnits="userSpaceOnUse">
      <feOffset input="SourceAlpha"/>
      <feGaussianBlur stdDeviation="3" result="blur-3"/>
      <feFlood flood-opacity="0.102"/>
      <feComposite operator="in" in2="blur-3"/>
      <feComposite in="SourceGraphic"/>
    </filter>
    <filter id="Rectangle_146" x="10.224" y="9.353" width="36.707" height="25.275" filterUnits="userSpaceOnUse">
      <feOffset input="SourceAlpha"/>
      <feGaussianBlur stdDeviation="3" result="blur-4"/>
      <feFlood flood-opacity="0.102"/>
      <feComposite operator="in" in2="blur-4"/>
      <feComposite in="SourceGraphic"/>
    </filter>
    <filter id="Rectangle_147" x="10.224" y="18.707" width="36.707" height="25.275" filterUnits="userSpaceOnUse">
      <feOffset input="SourceAlpha"/>
      <feGaussianBlur stdDeviation="3" result="blur-5"/>
      <feFlood flood-opacity="0.102"/>
      <feComposite operator="in" in2="blur-5"/>
      <feComposite in="SourceGraphic"/>
    </filter>
    <filter id="Path_7" x="0" y="8.748" width="26.652" height="26.412" filterUnits="userSpaceOnUse">
      <feOffset input="SourceAlpha"/>
      <feGaussianBlur stdDeviation="3" result="blur-6"/>
      <feFlood flood-opacity="0.102"/>
      <feComposite operator="in" in2="blur-6"/>
      <feComposite in="SourceGraphic"/>
    </filter>
  </defs>
  <g id="All_Categories" data-name="All Categories" transform="translate(9 9)">
    <g class="cls-7" transform="matrix(1, 0, 0, 1, -9, -9)">
      <circle id="Ellipse_22-2" data-name="Ellipse 22" class="cls-1" cx="3.637" cy="3.637" r="3.637" transform="translate(9.87 9)"/>
    </g>
    <g class="cls-6" transform="matrix(1, 0, 0, 1, -9, -9)">
      <circle id="Ellipse_23-2" data-name="Ellipse 23" class="cls-1" cx="3.637" cy="3.637" r="3.637" transform="translate(9.87 27.71)"/>
    </g>
    <g class="cls-5" transform="matrix(1, 0, 0, 1, -9, -9)">
      <rect id="Rectangle_145-2" data-name="Rectangle 145" class="cls-1" width="18.707" height="7.275" rx="3.637" transform="translate(19.22 9)"/>
    </g>
    <g class="cls-4" transform="matrix(1, 0, 0, 1, -9, -9)">
      <rect id="Rectangle_146-2" data-name="Rectangle 146" class="cls-1" width="18.707" height="7.275" rx="3.637" transform="translate(19.22 18.35)"/>
    </g>
    <g class="cls-3" transform="matrix(1, 0, 0, 1, -9, -9)">
      <rect id="Rectangle_147-2" data-name="Rectangle 147" class="cls-1" width="18.707" height="7.275" rx="3.637" transform="translate(19.22 27.71)"/>
    </g>
    <g class="cls-2" transform="matrix(1, 0, 0, 1, -9, -9)">
      <path id="Path_7-2" data-name="Path 7" class="cls-1" d="M480.548,616.418a5.391,5.391,0,0,0,4.266,4.266,5.3,5.3,0,0,0-4.266,4.146c-.718-3.668-4.386-4.067-4.386-4.146A5.347,5.347,0,0,0,480.548,616.418Z" transform="translate(-467.16 -598.67)"/>
    </g>
  </g>
</svg>
