<svg xmlns="http://www.w3.org/2000/svg" width="20" height="20" viewBox="0 0 20 20">
  <defs>
    <style>
      .cls-1 {
        fill: #515151;
      }

      .cls-2 {
        fill: none;
        stroke: #fff;
        stroke-width: 2px;
      }
    </style>
  </defs>
  <g id="DeleteImage" transform="translate(-0.422 0.618)">
    <circle id="Ellipse_40" data-name="Ellipse 40" class="cls-1" cx="10" cy="10" r="10" transform="translate(0.422 -0.618)"/>
    <line id="Line_117" data-name="Line 117" class="cls-2" x1="6.988" y2="6.988" transform="translate(6.63 5.627)"/>
    <line id="Line_118" data-name="Line 118" class="cls-2" x2="6.988" y2="6.988" transform="translate(6.63 5.627)"/>
  </g>
</svg>
