<svg id="EmailHelp" xmlns="http://www.w3.org/2000/svg" width="22.422" height="15.941" viewBox="0 0 22.422 15.941">
  <defs>
    <style>
      .cls-1 {
        fill: #797998;
      }
    </style>
  </defs>
  <g id="Group_260" data-name="Group 260" transform="translate(3.905 7.685)">
    <path id="Path_62" data-name="Path 62" class="cls-1" d="M23.377,19.738a.358.358,0,0,1-.247-.1l-4.16-3.9a.361.361,0,1,1,.5-.526l4.16,3.9a.362.362,0,0,1-.248.625Z" transform="translate(-9.128 -15.111)"/>
    <path id="Path_63" data-name="Path 63" class="cls-1" d="M5.763,19.738a.362.362,0,0,1-.248-.625l4.162-3.9a.361.361,0,1,1,.5.526l-4.162,3.9A.358.358,0,0,1,5.763,19.738Z" transform="translate(-5.402 -15.112)"/>
  </g>
  <path id="Path_64" data-name="Path 64" class="cls-1" d="M20.615,20.423H1.808A1.81,1.81,0,0,1,0,18.615V6.29A1.81,1.81,0,0,1,1.808,4.482H20.615A1.81,1.81,0,0,1,22.423,6.29V18.615A1.81,1.81,0,0,1,20.615,20.423ZM1.808,5.205A1.086,1.086,0,0,0,.723,6.29V18.615A1.086,1.086,0,0,0,1.808,19.7H20.615A1.086,1.086,0,0,0,21.7,18.615V6.29a1.086,1.086,0,0,0-1.085-1.085Z" transform="translate(0 -4.482)"/>
  <path id="Path_65" data-name="Path 65" class="cls-1" d="M11.394,14.49a2.022,2.022,0,0,1-1.327-.479L.782,5.912a.362.362,0,1,1,.475-.545l9.284,8.1a1.353,1.353,0,0,0,1.7,0L21.518,5.38a.362.362,0,1,1,.476.545L12.721,14.01A2.02,2.02,0,0,1,11.394,14.49Z" transform="translate(-0.182 -4.703)"/>
</svg>
