<svg xmlns="http://www.w3.org/2000/svg" width="24" height="24" viewBox="0 0 24 24">
  <defs>
    <style>
      .cls-1 {
        fill: none;
        stroke: #20324d;
        stroke-miterlimit: 10;
        stroke-width: 2px;
      }

      .cls-2 {
        fill: #20324d;
      }
    </style>
  </defs>
  <g id="Help" transform="translate(0 -3.128)">
    <path id="Path_131" data-name="Path 131" class="cls-1" d="M1,10V20H23V10" transform="translate(0 6.128)"/>
    <path id="Path_712" data-name="Path 712" class="cls-1" d="M1,10V20H23V10" transform="translate(24 24.128) rotate(180)"/>
    <g id="Group_865" data-name="Group 865" transform="translate(-442 -542.872)">
      <circle id="Ellipse_28" data-name="Ellipse 28" class="cls-2" cx="1.587" cy="1.587" r="1.587" transform="translate(452.492 563.787)"/>
      <path id="Path_714" data-name="Path 714" class="cls-2" d="M181.08,128.5a5.086,5.086,0,0,0-5.08,5.08,1.27,1.27,0,0,0,2.54,0,2.54,2.54,0,1,1,2.54,2.54,1.27,1.27,0,0,0-1.27,1.27v3.175a1.27,1.27,0,0,0,2.54,0V138.5a5.08,5.08,0,0,0-1.27-10Z" transform="translate(273 421)"/>
    </g>
  </g>
</svg>
