<svg xmlns="http://www.w3.org/2000/svg" width="19" height="19" viewBox="0 0 19 19">
  <defs>
    <style>
      .cls-1 {
        fill: #c2fbd7;
      }

      .cls-2 {
        fill: none;
        stroke: #707070;
      }
    </style>
  </defs>
  <g id="Increase" transform="translate(0.243 0.025)">
    <path id="Path_77" data-name="Path 77" class="cls-1" d="M9.5,0A9.5,9.5,0,1,1,0,9.5,9.5,9.5,0,0,1,9.5,0Z" transform="translate(-0.243 -0.024)"/>
    <g id="Group_296" data-name="Group 296" transform="translate(4.162 4.237)">
      <path id="Path_75" data-name="Path 75" class="cls-2" d="M5008.118,2400.834v10.473" transform="translate(-5003.021 -2400.834)"/>
      <path id="Path_76" data-name="Path 76" class="cls-2" d="M5005.248,2404.2h10.193" transform="translate(-5005.248 -2398.991)"/>
    </g>
  </g>
</svg>
