<svg id="InstagramHelp" xmlns="http://www.w3.org/2000/svg" width="19.532" height="19.532" viewBox="0 0 19.532 19.532">
  <defs>
    <style>
      .cls-1 {
        fill: #797998;
      }
    </style>
  </defs>
  <path id="Path_69" data-name="Path 69" class="cls-1" d="M14.244,0H5.286A5.293,5.293,0,0,0,0,5.287v8.958a5.293,5.293,0,0,0,5.287,5.287h8.958a5.293,5.293,0,0,0,5.287-5.287V5.287A5.293,5.293,0,0,0,14.244,0Zm4.142,14.245a4.147,4.147,0,0,1-4.142,4.142H5.286a4.147,4.147,0,0,1-4.142-4.142V5.287A4.147,4.147,0,0,1,5.286,1.145h8.958a4.147,4.147,0,0,1,4.142,4.142Zm0,0" transform="translate(0.001 0)"/>
  <path id="Path_70" data-name="Path 70" class="cls-1" d="M121.345,116a5.341,5.341,0,1,0,5.341,5.341A5.347,5.347,0,0,0,121.345,116Zm0,9.536a4.2,4.2,0,1,1,4.2-4.2A4.2,4.2,0,0,1,121.345,125.54Zm0,0" transform="translate(-111.579 -111.579)"/>
  <path id="Path_71" data-name="Path 71" class="cls-1" d="M359.555,66.285a1.578,1.578,0,1,0,1.578,1.578A1.58,1.58,0,0,0,359.555,66.285Zm0,2.011a.433.433,0,1,1,.433-.433A.434.434,0,0,1,359.555,68.3Zm0,0" transform="translate(-344.321 -63.757)"/>
</svg>
