<svg xmlns="http://www.w3.org/2000/svg" width="27.056" height="19.54" viewBox="0 0 27.056 19.54">
  <defs>
    <style>
      .cls-1 {
        fill: #141414;
      }

      .cls-2 {
        fill: #eee;
      }

      .cls-3 {
        fill: #dd2e44;
      }

      .cls-4 {
        fill: #007a3c;
      }
    </style>
  </defs>
  <g id="IraqCheckoutPhone" transform="translate(0 -26.111)">
    <g id="Group_251" data-name="Group 251" transform="translate(0 26.111)">
      <g id="Group_250" data-name="Group 250">
        <path id="Path_52" data-name="Path 52" class="cls-1" d="M0,285.117a3.006,3.006,0,0,0,3.006,3.006H24.05a3.006,3.006,0,0,0,3.006-3.006v-3.006H0Z" transform="translate(0 -268.583)"/>
        <path id="Path_53" data-name="Path 53" class="cls-2" d="M0,147.4H27.056v-7.516H0Z" transform="translate(0 -133.876)"/>
        <path id="Path_54" data-name="Path 54" class="cls-3" d="M24.05,26.111H3.006A3.006,3.006,0,0,0,0,29.117v3.006H27.056V29.117a3.006,3.006,0,0,0-3.006-3.006" transform="translate(0 -26.111)"/>
        <g id="Group_249" data-name="Group 249" transform="translate(5.96 7.369)">
          <path id="Path_55" data-name="Path 55" class="cls-4" d="M115.261,171.725v.924h4.247v-.554c0-.246-.277-.231-.277-.046v.415h-3.324v-.646l2.331-2.331.354.376L116.478,172h2.2s.1-.647.7-.647l.685.477v1.739h-6.187a.929.929,0,0,1-1.093.708s.646-.431.646-.939a1.436,1.436,0,0,0-.415-.908l.585-.369a1.846,1.846,0,0,0,.123.408.809.809,0,0,0,.292.177h.785l-.01-.413-.113-.05Z" transform="translate(-112.784 -169.279)"/>
          <path id="Path_56" data-name="Path 56" class="cls-4" d="M258.591,172.882l-.125.171H258.1c0-.866,0-2.569,0-2.586s.162-.146.162-.146l-.739-.408v4.063h1.385Z" transform="translate(-249.874 -169.682)"/>
          <path id="Path_57" data-name="Path 57" class="cls-4" d="M307.12,176.379h-.027c-.185,0-.162-.247.092-.247a.178.178,0,0,1,.2.144v.1Zm1.927-2.493v2.493h-.369v-2.216l-.462.462v1.754h-.369V174.9l-.461.461v0l-.1.1.1.04v.344a.633.633,0,0,0-.924.533v.924h3.046v-3.878Z" transform="translate(-296.228 -173.009)"/>
          <path id="Path_58" data-name="Path 58" class="cls-4" d="M334.562,165.767c0,.114-.038.208-.085.208s-.085-.094-.085-.208.038-.207.085-.207.085.092.085.207" transform="translate(-322.682 -165.56)"/>
          <path id="Path_59" data-name="Path 59" class="cls-4" d="M322.9,175.314a.479.479,0,0,0,.393.092.447.447,0,0,0,.338-.269s.146.238.307.2.308-.292.308-.292.008.407-.231.446a.324.324,0,0,1-.338-.13.5.5,0,0,1-.354.2c-.231.016-.423-.246-.423-.246" transform="translate(-311.798 -174.544)"/>
          <path id="Path_60" data-name="Path 60" class="cls-4" d="M373.913,172.873l-.2.192h-.322v-2.624l.192-.085-.746-.431v4.062h1.393Z" transform="translate(-359.094 -169.696)"/>
          <path id="Path_61" data-name="Path 61" class="cls-4" d="M145.226,251.947a.2.2,0,1,1-.2-.2.2.2,0,0,1,.2.2" transform="translate(-143.132 -247.192)"/>
        </g>
      </g>
    </g>
  </g>
</svg>
