<svg xmlns="http://www.w3.org/2000/svg" width="19.608" height="19.246" viewBox="0 0 19.608 19.246">
  <defs>
    <style>
      .cls-1, .cls-2, .cls-4 {
        fill: none;
      }

      .cls-1, .cls-2 {
        stroke: #ffffff;
      }

      .cls-2 {
        stroke-width: 1.7px;
      }

      .cls-3 {
        stroke: none;
      }
    </style>
  </defs>
  <g id="Navbar-Cart" transform="translate(0 0.85)">
    <g id="Group_115" data-name="Group 115" transform="translate(0 0)">
      <g id="Ellipse_24" data-name="Ellipse 24" class="cls-1" transform="translate(2.887 13.745)">
        <ellipse class="cls-3" cx="2.326" cy="2.326" rx="2.326" ry="2.326"/>
        <ellipse class="cls-4" cx="2.326" cy="2.326" rx="1.826" ry="1.826"/>
      </g>
      <g id="Ellipse_25" data-name="Ellipse 25" class="cls-1" transform="translate(14.051 13.745)">
        <ellipse class="cls-3" cx="2.326" cy="2.326" rx="2.326" ry="2.326"/>
        <ellipse class="cls-4" cx="2.326" cy="2.326" rx="1.826" ry="1.826"/>
      </g>
      <path id="Path_8" data-name="Path 8" class="cls-2" d="M696.9,1126.225h3.559c13.672,3.664,14.656,3.86,15.2,3.981a6.73,6.73,0,0,1-6.393,7h-8.2v-5.187" transform="translate(-696.897 -1126.225)"/>
    </g>
  </g>
</svg>
