<svg xmlns="http://www.w3.org/2000/svg" width="30.966" height="27.001" viewBox="0 0 30.966 27.001">
  <defs>
    <style>
      .cls-1 {
        fill: #fff;
      }
    </style>
  </defs>
  <g id="shopping-cart_5_" data-name="shopping-cart (5)" transform="translate(-26 -57.093)">
    <g id="Group_1001" data-name="Group 1001" transform="translate(32.8 78.405)">
      <g id="Group_1000" data-name="Group 1000" transform="translate(0 0)">
        <circle id="Ellipse_27" data-name="Ellipse 27" class="cls-1" cx="2.845" cy="2.845" r="2.845"/>
      </g>
    </g>
    <g id="Group_1003" data-name="Group 1003" transform="translate(44.178 78.405)">
      <g id="Group_1002" data-name="Group 1002" transform="translate(0 0)">
        <circle id="Ellipse_28" data-name="Ellipse 28" class="cls-1" cx="2.845" cy="2.845" r="2.845"/>
      </g>
    </g>
    <g id="Group_1005" data-name="Group 1005" transform="translate(26 57.093)">
      <g id="Group_1004" data-name="Group 1004">
        <rect id="Rectangle_485" data-name="Rectangle 485" class="cls-1" width="5.689" height="2.845"/>
      </g>
    </g>
    <g id="Group_1007" data-name="Group 1007" transform="translate(28.867 57.093)">
      <g id="Group_1006" data-name="Group 1006" transform="translate(0 0)">
        <path id="Path_749" data-name="Path 749" class="cls-1" d="M72.336,60.783l-.492-3.689H70.422l-1.422.2,2.7,19.135H90.325s10.119-11.734,5.622-15.645-23.611,0-23.611,0Zm16.14,12.8H74.171l-1.422-9.956s15.211-2.489,19.143,0S88.476,73.583,88.476,73.583Z" transform="translate(-69 -57.094)"/>
      </g>
    </g>
  </g>
</svg>
