<svg xmlns="http://www.w3.org/2000/svg" width="19.824" height="18.664" viewBox="0 0 19.824 18.664">
  <defs>
    <style>
      .cls-1 {
        fill: #b71bd7;
      }
    </style>
  </defs>
  <g id="NavbarSidemenu" transform="translate(-17 -58.348)">
    <rect id="Rectangle_36" data-name="Rectangle 36" class="cls-1" width="19.824" height="3.017" rx="1.508" transform="translate(17 58.348)"/>
    <rect id="Rectangle_37" data-name="Rectangle 37" class="cls-1" width="19.824" height="3.017" rx="1.508" transform="translate(17 66.172)"/>
    <rect id="Rectangle_38" data-name="Rectangle 38" class="cls-1" width="19.824" height="3.017" rx="1.508" transform="translate(17 73.995)"/>
  </g>
</svg>
