<svg xmlns="http://www.w3.org/2000/svg" width="10.47" height="16.797" viewBox="0 0 10.47 16.797">
  <defs>
    <style>
      .cls-1 {
        fill: none;
        stroke: #c9c9c9;
        stroke-width: 1.7px;
      }
    </style>
  </defs>
  <path id="Navbar-Back" class="cls-1" d="M1368.046,50.067l-8.63,7.767,8.63,7.767" transform="translate(-1358.145 -49.435)"/>
</svg>
