<svg xmlns="http://www.w3.org/2000/svg" width="21.023" height="21.104" viewBox="0 0 21.023 21.104">
  <defs>
    <style>
      .cls-1 {
        fill: #fff;
      }
    </style>
  </defs>
  <g id="PhoneHelp" transform="translate(0 0)">
    <path id="Path_66" data-name="Path 66" class="cls-1" d="M5.172,14.028a22.389,22.389,0,0,0,7.447,5.833,11.59,11.59,0,0,0,4.167,1.233c.1,0,.2.009.3.009a3.451,3.451,0,0,0,2.676-1.15.1.1,0,0,0,.017-.022,11.268,11.268,0,0,1,.844-.875c.206-.2.415-.4.617-.612a2.111,2.111,0,0,0-.009-3.144L18.6,12.673a2.127,2.127,0,0,0-1.539-.708,2.2,2.2,0,0,0-1.557.7l-1.565,1.565c-.144-.083-.293-.157-.433-.227a5.408,5.408,0,0,1-.481-.262,16.568,16.568,0,0,1-3.957-3.6A9.541,9.541,0,0,1,7.73,8.007c.411-.372.8-.761,1.168-1.141.131-.136.267-.271.4-.407a2.242,2.242,0,0,0,.726-1.574A2.224,2.224,0,0,0,9.3,3.31L8,2.007c-.153-.153-.3-.3-.446-.455-.289-.3-.59-.6-.888-.879A2.18,2.18,0,0,0,5.124,0,2.244,2.244,0,0,0,3.567.678L1.932,2.313a3.36,3.36,0,0,0-1,2.151,8.093,8.093,0,0,0,.608,3.5A20.352,20.352,0,0,0,5.172,14.028ZM2,4.557a2.313,2.313,0,0,1,.7-1.487L4.319,1.443a1.178,1.178,0,0,1,.8-.372,1.117,1.117,0,0,1,.787.38c.293.271.568.555.866.857.149.153.3.306.455.464l1.3,1.3a1.187,1.187,0,0,1,.411.818,1.187,1.187,0,0,1-.411.818c-.136.136-.271.275-.407.411-.407.411-.787.8-1.207,1.172L6.9,7.316a.855.855,0,0,0-.219.971c0,.013.009.022.013.035a10.292,10.292,0,0,0,1.535,2.5,17.487,17.487,0,0,0,4.215,3.839,6.26,6.26,0,0,0,.577.315,5.407,5.407,0,0,1,.481.262l.048.026a.914.914,0,0,0,.424.109.927.927,0,0,0,.652-.3l1.635-1.635a1.157,1.157,0,0,1,.8-.389,1.1,1.1,0,0,1,.774.389l2.637,2.632a1.055,1.055,0,0,1-.013,1.649c-.184.2-.376.385-.582.582a12.593,12.593,0,0,0-.914.949,2.4,2.4,0,0,1-1.876.8c-.074,0-.153,0-.227-.009a10.53,10.53,0,0,1-3.769-1.128A21.269,21.269,0,0,1,6,13.355,19.48,19.48,0,0,1,2.548,7.6,7.053,7.053,0,0,1,2,4.557Z" transform="translate(-0.912 0)"/>
  </g>
</svg>
