<svg xmlns="http://www.w3.org/2000/svg" width="13.876" height="10.74" viewBox="0 0 13.876 10.74">
  <defs>
    <style>
      .cls-1 {
        fill: none;
        stroke: #fff;
        stroke-width: 1.5px;
      }
    </style>
  </defs>
  <path id="SORT-SELECTED" class="cls-1" d="M3540.809,1704.7l3.986,4.018,8.817-9.146" transform="translate(-3540.276 -1699.053)"/>
</svg>
