<svg xmlns="http://www.w3.org/2000/svg" width="35.078" height="34.445" viewBox="0 0 35.078 34.445">
  <defs>
    <style>
      .cls-1 {
        fill: #FF9D0C;
        
      }

      .cls-2 {
        fill: #FF9D0C;
        
      }
    </style>
  </defs>
  <g id="TabbarHome" transform="translate(-968.543 329.223)">
    <path id="Shape_2" data-name="Shape 2" class="cls-1" d="M1361.782,946.851c.289.251,1.033.954.615,1.447s-1.075.158-1.345-.067-12.527-11.336-12.79-11.561a1.351,1.351,0,0,0-1-.482,1.434,1.434,0,0,0-1.063.532c-.244.244-12.228,11.215-12.624,11.56s-.909.562-1.279.266-.263-1.011.349-1.564,12.833-11.688,13.156-11.976a2.1,2.1,0,0,1,1.445-.815,2.188,2.188,0,0,1,1.545.816C1349.23,935.4,1361.493,946.6,1361.782,946.851Z" transform="translate(-361.108 -1263.416)"/>
    <path id="Shape_1_copy" data-name="Shape 1 copy" class="cls-2" d="M15.768,30.459l-.066,0H9.688c-.43,0-1.15,0-1.67-1.669-.413-1.324-2.016-6.9-2.7-9.282l-.007-.025c-.166-.576-.275-.958-.3-1.038-.018-.059-.035-.131-.053-.206-.107-.45-.269-1.128-.95-1.128H1c-.374,0-1-.173-1-1.335,0-.478.643-1.028.918-1.263L1,14.439C1.143,14.313,16.012.839,16.37.423A1.654,1.654,0,0,1,17.547,0a1.7,1.7,0,0,1,1.161.423L19.9,1.514l0,0C23.59,4.9,33.388,13.893,34.076,14.453c.094.086.186.166.275.243.406.352.727.63.727,1.071,0,.624-.152,1.341-1.336,1.341H31.4c-.493,0-.764.271-1,1-.132.4-1.159,3.911-2.065,7.005l0,.01c-.637,2.176-1.187,4.054-1.273,4.331l-.024.078c-.189.615-.284.924-1.313.924H20.379c-.424,0-.668-.122-.668-.334,0-.228.874-.977,1.2-1.259.514-.439,5.019-4.375,5.019-7.316,0-2.972-2.563-5.365-4.685-5.365a3.563,3.563,0,0,0-2.772,1.147c-.112.113-.187.188-.235.188h-.334c-.047,0-.122-.07-.236-.175a4.128,4.128,0,0,0-3.1-1.161,5.386,5.386,0,0,0-5.011,5.34c0,2.588,4.2,6.385,5.775,7.814.26.235.465.42.573.529.176.169.249.323.205.433s-.182.159-.407.159h.066ZM26.726,12.1c-1.428,0-2.339,1.972-2.339,3,0,.932.152,2,1.337,2,1.129,0,2.339-1.763,2.339-3C28.063,12.908,27.526,12.1,26.726,12.1ZM8.686,11.769a1.132,1.132,0,0,0-1.07.552,2.9,2.9,0,0,0,.364,2.661,2.877,2.877,0,0,0,2.377,1.459,1.837,1.837,0,0,0,1.337-1.669C11.693,13.4,9.4,11.769,8.686,11.769ZM21.715,8.1c-1.444,0-2.338,1.732-2.338,3.337,0,2.494.908,3.018,1.67,3.018.813,0,2.339-1.952,2.339-3.686C23.386,9.146,22.73,8.1,21.715,8.1ZM14.7,7.764a1.5,1.5,0,0,0-1.2.539,3.542,3.542,0,0,0-.471,2.8c.281,1.656,1.181,3,2,3,.8,0,2-1.2,2-3C17.038,8.743,15.515,7.764,14.7,7.764Z" transform="translate(968.543 -325.238)"/>
  </g>
</svg>