<svg id="TabbarAccount" xmlns="http://www.w3.org/2000/svg" width="22.951" height="27.508" viewBox="0 0 22.951 27.508">
  <defs>
    <style>
      .cls-1 {
        fill: #545454;
      }
    </style>
  </defs>
  <g id="Group_867" data-name="Group 867" transform="translate(0)">
    <g id="user_11_" data-name="user (11)">
      <path id="Path_3968" data-name="Path 3968" class="cls-1" d="M93.657,13.251a6.411,6.411,0,0,0,4.685-1.941,6.411,6.411,0,0,0,1.941-4.685,6.412,6.412,0,0,0-1.941-4.685,6.624,6.624,0,0,0-9.369,0,6.411,6.411,0,0,0-1.941,4.684,6.411,6.411,0,0,0,1.941,4.685A6.413,6.413,0,0,0,93.657,13.251ZM90.113,3.081a5.012,5.012,0,0,1,7.089,0,4.79,4.79,0,0,1,1.469,3.545A4.79,4.79,0,0,1,97.2,10.17a5.011,5.011,0,0,1-7.089,0,4.789,4.789,0,0,1-1.469-3.545,4.789,4.789,0,0,1,1.469-3.545Zm0,0" transform="translate(-82.356 0)"/>
      <path id="Path_3969" data-name="Path 3969" class="cls-1" d="M22.895,255.181a16.365,16.365,0,0,0-.223-1.738,13.694,13.694,0,0,0-.428-1.748,8.633,8.633,0,0,0-.719-1.63,6.144,6.144,0,0,0-1.083-1.412,4.777,4.777,0,0,0-1.556-.978,5.378,5.378,0,0,0-1.987-.359,2.016,2.016,0,0,0-1.077.457c-.323.211-.7.454-1.122.723a6.43,6.43,0,0,1-1.451.639,5.637,5.637,0,0,1-3.551,0,6.409,6.409,0,0,1-1.45-.639c-.417-.267-.8-.51-1.123-.724a2.014,2.014,0,0,0-1.076-.457,5.372,5.372,0,0,0-1.986.36,4.772,4.772,0,0,0-1.556.978,6.145,6.145,0,0,0-1.083,1.412A8.649,8.649,0,0,0,.7,251.7a13.727,13.727,0,0,0-.427,1.747,16.253,16.253,0,0,0-.223,1.739c-.037.525-.055,1.072-.055,1.624a4.568,4.568,0,0,0,1.357,3.456,4.883,4.883,0,0,0,3.5,1.275H18.1a4.884,4.884,0,0,0,3.5-1.275,4.566,4.566,0,0,0,1.357-3.456c0-.554-.019-1.1-.056-1.625Zm-2.413,3.913a3.288,3.288,0,0,1-2.384.831H4.852a3.288,3.288,0,0,1-2.384-.831,2.983,2.983,0,0,1-.856-2.288c0-.515.017-1.024.051-1.513a14.66,14.66,0,0,1,.2-1.565,12.107,12.107,0,0,1,.376-1.541,7.041,7.041,0,0,1,.585-1.325,4.556,4.556,0,0,1,.8-1.043,3.169,3.169,0,0,1,1.035-.644,3.71,3.71,0,0,1,1.27-.245c.056.03.157.087.32.193.331.216.713.462,1.136.732a7.987,7.987,0,0,0,1.822.814,7.247,7.247,0,0,0,4.542,0,8,8,0,0,0,1.823-.815c.432-.276.8-.515,1.135-.732.163-.106.263-.163.32-.193a3.713,3.713,0,0,1,1.27.245,3.174,3.174,0,0,1,1.035.644,4.543,4.543,0,0,1,.8,1.044,7.018,7.018,0,0,1,.585,1.325,12.08,12.08,0,0,1,.376,1.541,14.785,14.785,0,0,1,.2,1.566h0c.034.487.051,1,.052,1.512a2.983,2.983,0,0,1-.856,2.288Zm0,0" transform="translate(0 -234.029)"/>
    </g>
  </g>
</svg>
