<svg xmlns="http://www.w3.org/2000/svg" width="35.343" height="29.45" viewBox="0 0 35.343 29.45">
  <defs>
    <style>
      .cls-1 {
        fill: #545454;
      }
    </style>
  </defs>
  <g id="TabbarSellPet" transform="translate(3 2.44)">
    <g id="Group_869" data-name="Group 869">
      <g id="dog" transform="translate(-43.001 -154.466)">
        <path id="Path_3971" data-name="Path 3971" class="cls-1" d="M73.927,159.007a19.5,19.5,0,0,0-3.437-4.216c-2.382-2.106-4.472-2.032-5.506-1.8a4.241,4.241,0,0,0-1.5.657,10.009,10.009,0,0,0-5.789-1.622,9.963,9.963,0,0,0-5.9,1.7,4.253,4.253,0,0,0-1.429-.606c-1.034-.232-3.125-.306-5.506,1.8a19.5,19.5,0,0,0-3.438,4.216c-1.531,2.572-1.824,4.74-.87,6.441a5.187,5.187,0,0,0,4.072,2.682,15.673,15.673,0,0,0-.282,3.044,9.945,9.945,0,0,0,1.474,5.487,8.96,8.96,0,0,0,3.683,3.186,19.046,19.046,0,0,0,8.193,1.5,19.046,19.046,0,0,0,8.193-1.5,8.96,8.96,0,0,0,3.683-3.186A9.943,9.943,0,0,0,71.04,171.3a15.6,15.6,0,0,0-.307-3.171,5.186,5.186,0,0,0,4.064-2.681c.953-1.7.661-3.869-.87-6.441Zm-28.055,5.231c-.206.548-.405,1.077-.588,1.61a2.8,2.8,0,0,1-2.594-1.473c-.615-1.1.117-2.773.838-3.986a17.049,17.049,0,0,1,2.954-3.632c1.565-1.384,2.767-1.373,3.344-1.244l.042.01a19.8,19.8,0,0,0-3.161,6.4C46.42,162.781,46.141,163.521,45.871,164.238Zm12.8,6.683a1.767,1.767,0,0,1-.979.569,2.212,2.212,0,0,1-1.552-1.559c0-.211.065-.275.211-.336a6.1,6.1,0,0,1,2.681,0,.294.294,0,0,1,.211.336A1.769,1.769,0,0,1,58.669,170.921Zm8.835,4.535a6.543,6.543,0,0,1-2.7,2.312A15,15,0,0,1,58.916,179v-5.316a4.833,4.833,0,0,0,1.485-1.026A4.056,4.056,0,0,0,61.7,169.93a2.737,2.737,0,0,0-1.715-2.6,5.73,5.73,0,0,0-2.291-.34,5.731,5.731,0,0,0-2.291.34,2.737,2.737,0,0,0-1.715,2.6,4.056,4.056,0,0,0,1.294,2.728,4.83,4.83,0,0,0,1.485,1.026V179a15,15,0,0,1-5.89-1.234,6.544,6.544,0,0,1-2.7-2.312,7.545,7.545,0,0,1-1.082-4.156,15.577,15.577,0,0,1,1.376-6.2c.278-.737.565-1.5.867-2.407a16.778,16.778,0,0,1,2.949-5.873,7.115,7.115,0,0,1,5.7-2.342,7.115,7.115,0,0,1,5.7,2.342,16.773,16.773,0,0,1,2.949,5.873c.3.9.588,1.665.867,2.407a15.578,15.578,0,0,1,1.376,6.2A7.543,7.543,0,0,1,67.5,175.455Zm5.152-11.208a2.8,2.8,0,0,1-2.6,1.474c-.171-.492-.356-.982-.546-1.489-.269-.716-.548-1.457-.834-2.314a19.491,19.491,0,0,0-3.253-6.508l.1-.025c.577-.129,1.779-.14,3.344,1.244a17.055,17.055,0,0,1,2.954,3.632C72.539,161.475,73.271,163.151,72.656,164.248Z" transform="translate(0 0)"/>
        <path id="Path_3972" data-name="Path 3972" class="cls-1" d="M202.154,255.536a1.227,1.227,0,0,0-1.227,1.227v1.847a1.227,1.227,0,1,0,2.454,0v-1.847A1.227,1.227,0,0,0,202.154,255.536Z" transform="translate(-147.76 -95.042)"/>
        <path id="Path_3973" data-name="Path 3973" class="cls-1" d="M282.3,255.536a1.227,1.227,0,0,0-1.227,1.227v1.847a1.227,1.227,0,1,0,2.454,0v-1.847A1.227,1.227,0,0,0,282.3,255.536Z" transform="translate(-221.353 -95.042)"/>
      </g>
    </g>
  </g>
</svg>
