<svg xmlns="http://www.w3.org/2000/svg" width="31.089" height="31.087" viewBox="0 0 31.089 31.087">
    <defs>
        <style>
            .cls-1{fill:none;stroke:#ff9d0c;stroke-width:1px}
        </style>
    </defs>
    <g transform="translate(0 -0.011)" class="cls-1">
        <g transform="translate(3.886 21.111)" class="cls-1">
            <path d="M69.236,349.243l-3.886-1.652a.971.971,0,0,0-.758,1.788l3.886,1.652a.971.971,0,0,0,.758-1.788Z" transform="translate(-63.999 -347.514)"/>
        </g>
        <g transform="translate(0 0.011)" class="cls-1">
            <g transform="translate(0 0)" class="cls-1">
                <path d="M31.075,6.766a.991.991,0,0,0-.049-.3.873.873,0,0,0-.091-.146c-.021-.035-.037-.066-.06-.1a.933.933,0,0,0-.4-.313c-.006,0-.008-.008-.014-.01L14.913.076a.95.95,0,0,0-.723.014L.589,5.917c-.014.006-.019.021-.033.027a.941.941,0,0,0-.34.286,1.014,1.014,0,0,0-.074.1.791.791,0,0,0-.064.093A.975.975,0,0,0,0,6.808V24.3a.973.973,0,0,0,.589.894l13.6,5.829h0a.967.967,0,0,0,.381.078.986.986,0,0,0,.342-.062l.035-.014h0l15.507-5.816a.971.971,0,0,0,.63-.909V6.81C31.089,6.793,31.075,6.781,31.075,6.766ZM13.6,28.652l-11.658-5V8.285l11.658,5Zm.995-17.06L3.439,6.81,14.6,2.03,27.35,6.81,24.309,7.951,18.857,5.508A.955.955,0,0,0,18,5.542L14.194,7.16a.975.975,0,0,0,.01,1.8l3.534,1.459Zm6.777-.466,1.943-.729v4.735l-1.943.729Zm-.968-1.712-3.323-1.37,1.376-.585L21.723,8.92Zm8.74,14.209-13.6,5.1V13.312l3.886-1.457v5.409a.971.971,0,0,0,.972.972.994.994,0,0,0,.342-.062l3.886-1.457a.973.973,0,0,0,.63-.909V9.669l3.886-1.457Z" transform="translate(0 -0.011)"/>
            </g>
        </g>
    </g>
</svg>
