<svg xmlns="http://www.w3.org/2000/svg" width="42" height="42" viewBox="0 0 42 42">
  <defs>
    <style>
      .cls-1 {
        fill: #039be5;
      }

      .cls-2 {
        fill: #fff;
      }
    </style>
  </defs>
  <g id="Location" transform="translate(-0.148 -0.148)">
    <g id="Group_820" data-name="Group 820" transform="translate(0 0)">
      <rect id="Rectangle_43" data-name="Rectangle 43" class="cls-1" width="42" height="42" rx="15" transform="translate(0.148 0.148)"/>
    </g>
    <g id="maps-and-flags" transform="translate(-60.425 6.578)">
      <g id="Group_1184" data-name="Group 1184" transform="translate(70.573)">
        <path id="Path_790" data-name="Path 790" class="cls-2" d="M81.4,0A10.837,10.837,0,0,0,70.573,10.825c0,7.408,9.687,18.283,10.1,18.742a.975.975,0,0,0,1.451,0c.412-.459,10.1-11.334,10.1-18.742A10.838,10.838,0,0,0,81.4,0Zm0,16.272a5.446,5.446,0,1,1,5.446-5.446A5.453,5.453,0,0,1,81.4,16.272Z" transform="translate(-70.573)"/>
      </g>
    </g>
  </g>
</svg>
