<svg xmlns="http://www.w3.org/2000/svg" width="23.33" height="24.462" viewBox="0 0 23.33 24.462">
  <defs>
    <style>
      .cls-1, .cls-3 {
        fill: none;
      }

      .cls-1 {
        stroke: #fff;
        stroke-width: 3px;
      }

      .cls-2 {
        stroke: none;
      }
    </style>
  </defs>
  <g id="NavbarSearch" transform="translate(-325 -49)">
    <g id="Ellipse_29" data-name="Ellipse 29" class="cls-1" transform="translate(325 49)">
      <circle class="cls-2" cx="11" cy="11" r="11"/>
      <circle class="cls-3" cx="11" cy="11" r="9.5"/>
    </g>
    <line id="Line_115" data-name="Line 115" class="cls-1" x2="4.903" y2="4.702" transform="translate(342.389 67.677)"/>
  </g>
</svg>
