<svg xmlns="http://www.w3.org/2000/svg" xmlns:xlink="http://www.w3.org/1999/xlink" width="79.043" height="31.807" viewBox="0 0 79.043 31.807">
  <defs>
    <style>
      .cls-1 {
        fill: url(#linear-gradient);
      }
    </style>
    <linearGradient id="linear-gradient" x1="0.505" y1="-2.164" x2="0.498" y2="-3.195" gradientUnits="objectBoundingBox">
      <stop offset="0" stop-color="#fff"/>
      <stop offset="1" stop-color="#f7781e"/>
    </linearGradient>
  </defs>
  <g id="NavbarLogo" transform="translate(-22.32 -18.97)">
    <g id="Group_1175" data-name="Group 1175" transform="translate(22.32 43.348)">
      <path id="Path_776" data-name="Path 776" class="cls-1" d="M33.064,130.9H24.89V132.5h7.783a5.6,5.6,0,0,1,2.475.367,1.439,1.439,0,0,1,.643,1.371v1.016a1.451,1.451,0,0,1-.643,1.376,5.553,5.553,0,0,1-2.475.371H25.438a5.559,5.559,0,0,1-2.475-.371,1.447,1.447,0,0,1-.643-1.376v-.2l2.563-.318v.874h8.346v-1.678H25.444a5.481,5.481,0,0,1-2.457-.371,1.453,1.453,0,0,1-.638-1.376v-.815a1.453,1.453,0,0,1,.638-1.376,5.474,5.474,0,0,1,2.457-.371h7.087a5.681,5.681,0,0,1,2.426.355,1.3,1.3,0,0,1,.667,1.263v.155l-2.563.355V130.9h0Z" transform="translate(-22.32 -129.567)"/>
      <path id="Path_777" data-name="Path 777" class="cls-1" d="M100.475,130.913v6.059H97.57v-6.059H91.84V129.59h14.387v1.323Z" transform="translate(-76.491 -129.544)"/>
      <path id="Path_778" data-name="Path 778" class="cls-1" d="M162.56,131.136a1.453,1.453,0,0,1,.638-1.376,5.474,5.474,0,0,1,2.457-.371h9.189a5.481,5.481,0,0,1,2.457.371,1.453,1.453,0,0,1,.638,1.376v3.886a1.453,1.453,0,0,1-.638,1.382,5.529,5.529,0,0,1-2.457.367h-9.189a5.529,5.529,0,0,1-2.457-.367,1.453,1.453,0,0,1-.638-1.382Zm2.906,4.252h9.58v-4.676h-9.58Z" transform="translate(-131.596 -129.388)"/>
      <path id="Path_779" data-name="Path 779" class="cls-1" d="M242.59,136.763V129.38h10.677a5.066,5.066,0,0,1,2.155.338,1.141,1.141,0,0,1,.667,1.093v1.724a1.155,1.155,0,0,1-.667,1.1,4.992,4.992,0,0,1-2.155.342h-1.629l5.763,2.786h-4.166l-5.032-2.786h-2.753v2.786Zm9.39-6.107h-6.531v2.056h6.531a2.774,2.774,0,0,0,1.033-.13.465.465,0,0,0,.278-.459v-.885a.456.456,0,0,0-.278-.448A2.657,2.657,0,0,0,251.98,130.656Z" transform="translate(-193.956 -129.38)"/>
      <path id="Path_780" data-name="Path 780" class="cls-1" d="M335.531,135.368h-9.785v-1.83h5.765v-1.252h-5.765v-1.654h9.785V129.38H322.84v7.383h11.3a1.4,1.4,0,0,0,1.393-1.4Z" transform="translate(-256.488 -129.38)"/>
    </g>
    <g id="Group_1176" data-name="Group 1176" transform="translate(22.32 18.97)">
      <path id="Path_781" data-name="Path 781" class="cls-1" d="M302.57,40.568c0-.031,0-.062-.007-.093,0-.007,0-.013,0-.02v0a11.151,11.151,0,0,0-6.981-8.412V28.555a11.143,11.143,0,0,0,6.977-8.406.093.093,0,0,0,0-.024v0a.037.037,0,0,1,0-.015.961.961,0,0,0-.954-1.133h-7a.969.969,0,0,0-.969.969v7.182a9.3,9.3,0,0,1-4.146,0V19.939a.968.968,0,0,0-.969-.969h-7a.969.969,0,0,0-.969.969.844.844,0,0,0,.015.152c0,.009,0,.018,0,.029a.008.008,0,0,0,0,.007s0,.011,0,.015a11.151,11.151,0,0,0,6.979,8.412v3.486a11.149,11.149,0,0,0-6.975,8.392,1,1,0,0,0-.026.216.969.969,0,0,0,.969.969h7a.969.969,0,0,0,.969-.969v-7.18a9.3,9.3,0,0,1,4.146,0v7.18a.969.969,0,0,0,.969.969h7a.967.967,0,0,0,.932-.715c0-.015.011-.031.016-.049.007-.033.009-.066.013-.1a.693.693,0,0,0,.009-.095V40.65A.5.5,0,0,0,302.57,40.568Zm-6.992-19.657h4.8a9.2,9.2,0,0,1-4.8,5.533Zm-12.819,0h4.8v5.535A9.208,9.208,0,0,1,282.758,20.909Zm4.8,18.77H282.76a9.22,9.22,0,0,1,4.793-5.529Zm4.012-8.381a11.28,11.28,0,0,0-2.073.194V29.1a11.28,11.28,0,0,0,2.073.194,11.092,11.092,0,0,0,2.073-.194v2.387A11.476,11.476,0,0,0,291.565,31.3Zm4.012,2.853a9.206,9.206,0,0,1,4.793,5.529h-4.793Z" transform="translate(-223.535 -18.97)"/>
      <path id="Path_782" data-name="Path 782" class="cls-1" d="M174.972,33.866a12.65,12.65,0,0,0-7.286-2.541l-3.513-5.884,2.073-3.469,5.69,9.521a.971.971,0,0,0,1.667-1l-6.522-10.914a.97.97,0,0,0-1.678.02.1.1,0,0,0-.009.015l-3.182,5.323a.822.822,0,0,0-.046.086c-.007.013-.011.026-.018.04a.392.392,0,0,0-.018.046c-.009.022-.013.044-.02.066l-.007.022c-.007.022-.009.044-.013.066a.111.111,0,0,0,0,.026l-.007.06c0,.011,0,.024,0,.035v.1c0,.011,0,.024,0,.035l.007.06c0,.009,0,.015,0,.024l.013.068.007.02.02.068c0,.013.011.026.015.038l.02.049a.822.822,0,0,0,.046.086l3.292,5.513a12.613,12.613,0,0,0-5.877,2.449,12.861,12.861,0,0,0-4.539,6.527.972.972,0,0,0,.651,1.208.935.935,0,0,0,.278.042.807.807,0,0,0,.126-.011l7.425.035h.015a.76.76,0,0,0,.1-.007l.038-.007c.029,0,.055-.009.082-.015a.184.184,0,0,0,.033-.009.957.957,0,0,0,.219-.093l.011-.007a.123.123,0,0,0,.018-.013c.015-.009.031-.02.044-.029a.42.42,0,0,0,.038-.029l.035-.029.04-.035.027-.026a.341.341,0,0,0,.038-.042.249.249,0,0,0,.022-.029l.033-.044a.287.287,0,0,0,.022-.033c.009-.013.018-.029.027-.044a.386.386,0,0,0,.022-.042l.02-.04.02-.049.013-.038c.007-.018.011-.035.015-.051s.007-.026.011-.04.007-.033.011-.051l.007-.046a.3.3,0,0,0,0-.044.457.457,0,0,0,0-.055c0-.007,0-.013,0-.02v-.018c0-.02,0-.04,0-.057a.244.244,0,0,0,0-.04.444.444,0,0,0-.009-.053.235.235,0,0,0-.009-.042c0-.015-.007-.031-.011-.046l-.013-.046a.3.3,0,0,0-.015-.04c-.007-.018-.013-.035-.02-.051a.263.263,0,0,0-.018-.035c-.009-.018-.018-.035-.026-.051a.056.056,0,0,0-.009-.015l-2.093-3.5a.971.971,0,1,0-1.667,1l1.21,2.027-4.449-.022a10.916,10.916,0,0,1,9.207-6.443l4.683,7.843s.007.009.009.013c.018.026.035.053.053.077l.015.022a.864.864,0,0,0,.075.082l.026.024.06.051a.377.377,0,0,1,.031.024.875.875,0,0,0,.075.049l.018.011a.855.855,0,0,0,.1.049l.02.007c.029.011.057.02.088.029l.029.007c.029.007.055.011.084.015a.149.149,0,0,0,.031,0,.854.854,0,0,0,.106.007h6.381a1.045,1.045,0,0,0,.205-.022.971.971,0,0,0,.821-1.259A12.871,12.871,0,0,0,174.972,33.866Zm-6.052-.477a10.744,10.744,0,0,1,8.28,6.284h-4.528Z" transform="translate(-125.742 -19.08)"/>
      <path id="Path_783" data-name="Path 783" class="cls-1" d="M47.764,19.626a.968.968,0,0,0-.872-.135l-.128.042a22.134,22.134,0,0,0-11.035,8.251c-.155.219-.3.439-.453.662a22.287,22.287,0,0,0-11.682-8.958.972.972,0,0,0-1.274.923v20.5a.969.969,0,0,0,.969.969h5.142a.969.969,0,0,0,.969-.969V26.585a.969.969,0,0,0-1.939,0V39.941h-3.2V21.8a20.357,20.357,0,0,1,9.9,8.525A22.4,22.4,0,0,0,31.5,40.906a.969.969,0,0,0,.969.969h5.544a.969.969,0,0,0,.969-.969,22.7,22.7,0,0,0-2.594-10.565,20.579,20.579,0,0,1,9.834-8.54v18.14h-3.2V26.614a.969.969,0,0,0-1.939,0v14.3a.969.969,0,0,0,.969.969h5.142a.969.969,0,0,0,.969-.969v-20.5A.962.962,0,0,0,47.764,19.626ZM37.023,39.937H33.466a20.573,20.573,0,0,1,1.8-7.454A20.745,20.745,0,0,1,37.023,39.937Z" transform="translate(-22.32 -19.337)"/>
    </g>
  </g>
</svg>
