<svg xmlns="http://www.w3.org/2000/svg" xmlns:xlink="http://www.w3.org/1999/xlink" width="41" height="41" viewBox="0 0 41 41">
  <defs>
    <style>
      .cls-1 {
        fill: url(#linear-gradient);
      }

      .cls-2 {
        fill: #fff;
      }
    </style>
    <linearGradient id="linear-gradient" x1="0.332" y1="0.141" x2="0.585" y2="0.682" gradientUnits="objectBoundingBox">
      <stop offset="0" stop-color="#f1a817"/>
      <stop offset="1" stop-color="#e20984"/>
    </linearGradient>
  </defs>
  <g id="ShareVia" transform="translate(0.272)">
    <g id="Group_820" data-name="Group 820" transform="translate(0 0)">
      <rect id="Rectangle_43" data-name="Rectangle 43" class="cls-1" width="41" height="41" rx="15" transform="translate(-0.272 0)"/>
    </g>
    <g id="share_2_" data-name="share (2)" transform="translate(7.728 7.629)">
      <path id="Path_802" data-name="Path 802" class="cls-2" d="M321.59,19.461A3.461,3.461,0,1,1,318.129,16,3.461,3.461,0,0,1,321.59,19.461Zm0,0" transform="translate(-298.96 -15.201)"/>
      <path id="Path_803" data-name="Path 803" class="cls-2" d="M302.928,8.52a4.26,4.26,0,1,1,4.26-4.26A4.264,4.264,0,0,1,302.928,8.52Zm0-6.922A2.662,2.662,0,1,0,305.59,4.26,2.665,2.665,0,0,0,302.928,1.6Zm0,0" transform="translate(-283.759)"/>
      <path id="Path_804" data-name="Path 804" class="cls-2" d="M321.59,360.793a3.461,3.461,0,1,1-3.461-3.461A3.461,3.461,0,0,1,321.59,360.793Zm0,0" transform="translate(-298.96 -339.495)"/>
      <path id="Path_805" data-name="Path 805" class="cls-2" d="M302.928,349.852a4.26,4.26,0,1,1,4.26-4.26A4.264,4.264,0,0,1,302.928,349.852Zm0-6.922a2.662,2.662,0,1,0,2.662,2.662A2.665,2.665,0,0,0,302.928,342.929Zm0,0" transform="translate(-283.759 -324.293)"/>
      <path id="Path_806" data-name="Path 806" class="cls-2" d="M22.922,190.129a3.461,3.461,0,1,1-3.461-3.461A3.461,3.461,0,0,1,22.922,190.129Zm0,0" transform="translate(-15.201 -177.35)"/>
      <path id="Path_807" data-name="Path 807" class="cls-2" d="M4.26,179.187a4.26,4.26,0,1,1,4.26-4.26,4.264,4.264,0,0,1-4.26,4.26Zm0-6.922a2.662,2.662,0,1,0,2.662,2.662,2.665,2.665,0,0,0-2.662-2.662Zm0,0" transform="translate(0 -162.148)"/>
      <path id="Path_808" data-name="Path 808" class="cls-2" d="M115.414,97.979a1.065,1.065,0,0,1-.528-1.99l9.881-5.633a1.065,1.065,0,1,1,1.054,1.851l-9.881,5.633A1.058,1.058,0,0,1,115.414,97.979Zm0,0" transform="translate(-108.64 -85.711)"/>
      <path id="Path_809" data-name="Path 809" class="cls-2" d="M125.316,273.983a1.058,1.058,0,0,1-.526-.14l-9.881-5.633a1.065,1.065,0,0,1,1.054-1.851l9.881,5.633a1.065,1.065,0,0,1-.528,1.991Zm0,0" transform="translate(-108.662 -252.929)"/>
    </g>
  </g>
</svg>
