<svg xmlns="http://www.w3.org/2000/svg" width="176.499" height="129.208" viewBox="0 0 176.499 129.208">
  <defs>
    <style>
      .cls-1 {
        fill: #ff9d0c;
      }

      .cls-2 {
        fill: #84dbff;
      }

      .cls-3 {
        fill: #cdd6e0;
      }

      .cls-4 {
        fill: #f2f2f2;
      }

      .cls-5 {
        fill: #ffd15c;
      }

      .cls-6 {
        fill: #fbfbfb;
      }

      .cls-7 {
        fill: #334a5e;
      }

      .cls-8 {
        fill: #40596b;
      }

      .cls-9 {
        fill: #acb3ba;
      }

      .cls-10 {
        fill: #fff;
      }

      .cls-11 {
        fill: none;
        stroke: #ffd15c;
        stroke-width: 6px;
      }
    </style>
  </defs>
  <g id="SuccessThankYou" transform="translate(-119 -293.084)">
    <g id="delivery-truck_1_" data-name="delivery-truck (1)" transform="translate(119 224.487)">
      <path id="Path_763" data-name="Path 763" class="cls-1" d="M367.153,164.8H330.709v66.053h59.71v-29.73l-6.964-24.068a16.972,16.972,0,0,0-16.3-12.255" transform="translate(-216.715 -63.042)"/>
      <path id="Path_764" data-name="Path 764" class="cls-2" d="M397.471,216.587l-6.206-21.454a8.733,8.733,0,0,0-8.343-6.269H354.773v27.723Z" transform="translate(-232.485 -78.812)"/>
      <path id="Path_765" data-name="Path 765" class="cls-3" d="M397.451,216.555h-42.72V188.832Z" transform="translate(-232.457 -78.791)"/>
      <path id="Path_766" data-name="Path 766" class="cls-4" d="M397.471,216.587l-6.206-21.454a8.733,8.733,0,0,0-8.343-6.269H354.773Z" transform="translate(-232.485 -78.812)"/>
      <path id="Path_767" data-name="Path 767" class="cls-5" d="M11.03,68.6h91.933a11.032,11.032,0,0,1,11.03,11.03v88.179H0V79.627A11.03,11.03,0,0,1,11.03,68.6" transform="translate(0 0)"/>
      <path id="Path_768" data-name="Path 768" class="cls-6" d="M149.35,68.651V97.8l-4.265-4.265L140.614,98l-4.467-4.471L131.68,98,127.2,93.531,122.679,98l-4.464-4.471L113.9,97.848v-29.2Z" transform="translate(-74.639 -0.035)"/>
      <path id="Path_769" data-name="Path 769" class="cls-7" d="M176.527,331.8v12.464H.043V331.8h18.42a25.272,25.272,0,0,1,44.121,0h59.269a25.238,25.238,0,0,1,44.081,0Z" transform="translate(-0.028 -163.997)"/>
      <path id="Path_770" data-name="Path 770" class="cls-8" d="M401.452,358.852a17.612,17.612,0,1,1-17.615-17.615,17.615,17.615,0,0,1,17.615,17.615" transform="translate(-239.992 -178.662)"/>
      <path id="Path_771" data-name="Path 771" class="cls-9" d="M410.944,378.892a7.078,7.078,0,1,1-7.074-7.074,7.075,7.075,0,0,1,7.074,7.074" transform="translate(-260.018 -198.702)"/>
      <path id="Path_772" data-name="Path 772" class="cls-8" d="M101.567,358.852a17.615,17.615,0,1,1-17.615-17.615,17.618,17.618,0,0,1,17.615,17.615" transform="translate(-43.47 -178.662)"/>
      <path id="Path_773" data-name="Path 773" class="cls-9" d="M111.059,378.892a7.076,7.076,0,1,1-7.074-7.074,7.072,7.072,0,0,1,7.074,7.074" transform="translate(-63.504 -198.702)"/>
    </g>
    <path id="Path_775" data-name="Path 775" class="cls-10" d="M24.5,0A24.5,24.5,0,1,1,0,24.5,24.5,24.5,0,0,1,24.5,0Z" transform="translate(153 325)"/>
    <path id="Path_774" data-name="Path 774" class="cls-11" d="M4510.516,342.449l7.545,7.545,16.274-15.37" transform="translate(-4345 7.414)"/>
  </g>
</svg>
