<svg xmlns="http://www.w3.org/2000/svg" width="30.513" height="30.516" viewBox="0 0 30.513 30.516">
  <defs>
    <style>
      .cls-1 {
        fill: #FF9D0C;
      }
    </style>
  </defs>
  <path id="TabbarHome" class="cls-1" d="M30.193,13.272l0,0L17.743.822a2.809,2.809,0,0,0-3.973,0L1.328,13.264l-.013.013a2.808,2.808,0,0,0,1.869,4.786c.029,0,.058,0,.087,0h.5v9.16a3.292,3.292,0,0,0,3.288,3.288h4.87a.894.894,0,0,0,.894-.894V22.439a1.5,1.5,0,0,1,1.5-1.5h2.872a1.5,1.5,0,0,1,1.5,1.5v7.182a.894.894,0,0,0,.894.894h4.87a3.292,3.292,0,0,0,3.288-3.288v-9.16h.46a2.81,2.81,0,0,0,1.988-4.795Zm-1.266,2.707a1.015,1.015,0,0,1-.722.3H26.851a.894.894,0,0,0-.894.894V27.227a1.5,1.5,0,0,1-1.5,1.5H20.481V22.439a3.292,3.292,0,0,0-3.288-3.288H14.32a3.292,3.292,0,0,0-3.288,3.288v6.288H7.056a1.5,1.5,0,0,1-1.5-1.5V17.173a.894.894,0,0,0-.894-.894H3.331l-.042,0a1.02,1.02,0,0,1-.7-1.742h0L15.034,2.087a1.021,1.021,0,0,1,1.444,0L28.923,14.531l.006.006a1.023,1.023,0,0,1,0,1.443Zm0,0" transform="translate(-0.5 0.001)"/>
</svg>