<svg xmlns="http://www.w3.org/2000/svg" width="44" height="42" viewBox="0 0 44 42">
  <defs>
    <style>
      .cls-1 {
        fill: #4caf50;
      }

      .cls-2 {
        fill: #fafafa;
      }
    </style>
  </defs>
  <g id="Whatsapp" transform="translate(-0.101 -0.148)">
    <g id="Group_820" data-name="Group 820" transform="translate(0 0)">
      <rect id="Rectangle_43" data-name="Rectangle 43" class="cls-1" width="44" height="42" rx="15" transform="translate(0.101 0.148)"/>
    </g>
    <path id="Path_29" data-name="Path 29" class="cls-2" d="M134.337,139.311c-.562,1.586-2.79,2.9-4.568,3.285-1.216.259-2.8.466-8.152-1.752-6.84-2.834-11.245-9.785-11.589-10.236s-2.764-3.681-2.764-7.021a7.431,7.431,0,0,1,2.38-5.665,3.382,3.382,0,0,1,2.38-.835c.288,0,.547.015.78.026.684.029,1.027.07,1.478,1.149.562,1.353,1.929,4.693,2.092,5.036a1.385,1.385,0,0,1,.1,1.26,4.022,4.022,0,0,1-.754,1.068c-.343.4-.669.7-1.013,1.123-.314.37-.669.765-.273,1.449a20.659,20.659,0,0,0,3.777,4.693,17.112,17.112,0,0,0,5.458,3.366,1.472,1.472,0,0,0,1.641-.259,28.165,28.165,0,0,0,1.818-2.409,1.3,1.3,0,0,1,1.67-.506c.628.218,3.954,1.862,4.638,2.2s1.135.506,1.3.794A5.8,5.8,0,0,1,134.337,139.311Z" transform="translate(-99.406 -109.552)"/>
  </g>
</svg>
